^D:\SKILLBOX\UE_DEVELOPER\PART1\17.5\CONSOLEAPPLICATION1\CONSOLEAPPLICATION1.CPP
D:\SKILLBOX\UE_DEVELOPER\PART1\17.5\CONSOLEAPPLICATION1\CONSOLEA.FE2BFBB4\X64\DEBUG\VC143.PDB
D:\SKILLBOX\UE_DEVELOPER\PART1\17.5\CONSOLEAPPLICATION1\CONSOLEA.FE2BFBB4\X64\DEBUG\VC143.IDB
D:\SKILLBOX\UE_DEVELOPER\PART1\17.5\CONSOLEAPPLICATION1\CONSOLEA.FE2BFBB4\X64\DEBUG\CONSOLEAPPLICATION1.OBJ
