^D:\SKILLBOX\UE_DEVELOPER\PART1\17.5\CONSOLEAPPLICATION1\CONSOLEA.FE2BFBB4\X64\DEBUG\CONSOLEAPPLICATION1.OBJ
D:\SKILLBOX\UE_DEVELOPER\PART1\17.5\CONSOLEAPPLICATION1\X64\DEBUG\CONSOLEAPPLICATION1.EXE
D:\SKILLBOX\UE_DEVELOPER\PART1\17.5\CONSOLEAPPLICATION1\X64\DEBUG\CONSOLEAPPLICATION1.PDB
